%YAML 1.1
%TAG !u! tag:unity3d.com,2011:
--- !u!74 &7400000
AnimationClip:
  m_ObjectHideFlags: 0
  m_PrefabParentObject: {fileID: 0}
  m_PrefabInternal: {fileID: 0}
  m_Name: Cross-Empty
  serializedVersion: 6
  m_Legacy: 0
  m_Compressed: 0
  m_UseHighQualityCurve: 1
  m_RotationCurves: []
  m_CompressedRotationCurves: []
  m_EulerCurves: []
  m_PositionCurves: []
  m_ScaleCurves: []
  m_FloatCurves: []
  m_PPtrCurves:
  - curve:
    - time: 0
      value: {fileID: 21300000, guid: 3c4e5b8f996dc8c4aae5ba3746564f24, type: 3}
    - time: 0.041666668
      value: {fileID: 21300000, guid: 94d9a4e5dc6269e49ae800912cd595c2, type: 3}
    - time: 0.083333336
      value: {fileID: 21300000, guid: c8d5dddaebf23e742906471ad326195b, type: 3}
    - time: 0.125
      value: {fileID: 21300000, guid: 1be56f2365cdbf34491d5d6a40ec1773, type: 3}
    - time: 0.16666667
      value: {fileID: 21300000, guid: 308f176fa02689145bcbbeede7ee7337, type: 3}
    - time: 0.20833333
      value: {fileID: 21300000, guid: 11c6eddc69d5c524a98ec05a97ee843a, type: 3}
    - time: 0.25
      value: {fileID: 21300000, guid: 9c05f9d78e2c94547aabd420e4e956cd, type: 3}
    - time: 0.29166666
      value: {fileID: 21300000, guid: 8e75b69bd8f085742a3dcae0d5a3a88b, type: 3}
    - time: 0.33333334
      value: {fileID: 21300000, guid: aa4f398229526354d9a13970463d6eee, type: 3}
    attribute: m_Sprite
    path: 
    classID: 114
    script: {fileID: -765806418, guid: f70555f144d8491a825f0804e09c671c, type: 3}
  m_SampleRate: 24
  m_WrapMode: 0
  m_Bounds:
    m_Center: {x: 0, y: 0, z: 0}
    m_Extent: {x: 0, y: 0, z: 0}
  m_ClipBindingConstant:
    genericBindings:
    - serializedVersion: 2
      path: 0
      attribute: 2015549526
      script: {fileID: -765806418, guid: f70555f144d8491a825f0804e09c671c, type: 3}
      typeID: 114
      customType: 0
      isPPtrCurve: 1
    pptrCurveMapping:
    - {fileID: 21300000, guid: 3c4e5b8f996dc8c4aae5ba3746564f24, type: 3}
    - {fileID: 21300000, guid: 94d9a4e5dc6269e49ae800912cd595c2, type: 3}
    - {fileID: 21300000, guid: c8d5dddaebf23e742906471ad326195b, type: 3}
    - {fileID: 21300000, guid: 1be56f2365cdbf34491d5d6a40ec1773, type: 3}
    - {fileID: 21300000, guid: 308f176fa02689145bcbbeede7ee7337, type: 3}
    - {fileID: 21300000, guid: 11c6eddc69d5c524a98ec05a97ee843a, type: 3}
    - {fileID: 21300000, guid: 9c05f9d78e2c94547aabd420e4e956cd, type: 3}
    - {fileID: 21300000, guid: 8e75b69bd8f085742a3dcae0d5a3a88b, type: 3}
    - {fileID: 21300000, guid: aa4f398229526354d9a13970463d6eee, type: 3}
  m_AnimationClipSettings:
    serializedVersion: 2
    m_AdditiveReferencePoseClip: {fileID: 0}
    m_AdditiveReferencePoseTime: 0
    m_StartTime: 0
    m_StopTime: 0.375
    m_OrientationOffsetY: 0
    m_Level: 0
    m_CycleOffset: 0
    m_HasAdditiveReferencePose: 0
    m_LoopTime: 0
    m_LoopBlend: 0
    m_LoopBlendOrientation: 0
    m_LoopBlendPositionY: 0
    m_LoopBlendPositionXZ: 0
    m_KeepOriginalOrientation: 0
    m_KeepOriginalPositionY: 1
    m_KeepOriginalPositionXZ: 0
    m_HeightFromFeet: 0
    m_Mirror: 0
  m_EditorCurves: []
  m_EulerEditorCurves: []
  m_HasGenericRootTransform: 0
  m_HasMotionFloatCurves: 0
  m_GenerateMotionCurves: 0
  m_Events: []
