%YAML 1.1
%TAG !u! tag:unity3d.com,2011:
--- !u!74 &7400000
AnimationClip:
  m_ObjectHideFlags: 0
  m_PrefabParentObject: {fileID: 0}
  m_PrefabInternal: {fileID: 0}
  m_Name: Filled-Half Heart
  serializedVersion: 6
  m_Legacy: 0
  m_Compressed: 0
  m_UseHighQualityCurve: 1
  m_RotationCurves: []
  m_CompressedRotationCurves: []
  m_EulerCurves: []
  m_PositionCurves: []
  m_ScaleCurves: []
  m_FloatCurves: []
  m_PPtrCurves:
  - curve:
    - time: 0
      value: {fileID: 21300000, guid: b465885037b53b94686be415f053e640, type: 3}
    - time: 0.041666668
      value: {fileID: 21300000, guid: 4d4cf8c4dfef0bc45a91b57bfb04429a, type: 3}
    - time: 0.083333336
      value: {fileID: 21300000, guid: 30ccd297d82a5a14ebbf440c9ced74a2, type: 3}
    - time: 0.125
      value: {fileID: 21300000, guid: 949077701661c014a9e9770b621b9f67, type: 3}
    - time: 0.16666667
      value: {fileID: 21300000, guid: 89071aaf4f954d04d9e29894c4c23bdc, type: 3}
    - time: 0.20833333
      value: {fileID: 21300000, guid: e6ed179f2eb6381479fb1f681d282496, type: 3}
    attribute: m_Sprite
    path: 
    classID: 114
    script: {fileID: -765806418, guid: f70555f144d8491a825f0804e09c671c, type: 3}
  m_SampleRate: 24
  m_WrapMode: 0
  m_Bounds:
    m_Center: {x: 0, y: 0, z: 0}
    m_Extent: {x: 0, y: 0, z: 0}
  m_ClipBindingConstant:
    genericBindings:
    - serializedVersion: 2
      path: 0
      attribute: 2015549526
      script: {fileID: -765806418, guid: f70555f144d8491a825f0804e09c671c, type: 3}
      typeID: 114
      customType: 0
      isPPtrCurve: 1
    pptrCurveMapping:
    - {fileID: 21300000, guid: b465885037b53b94686be415f053e640, type: 3}
    - {fileID: 21300000, guid: 4d4cf8c4dfef0bc45a91b57bfb04429a, type: 3}
    - {fileID: 21300000, guid: 30ccd297d82a5a14ebbf440c9ced74a2, type: 3}
    - {fileID: 21300000, guid: 949077701661c014a9e9770b621b9f67, type: 3}
    - {fileID: 21300000, guid: 89071aaf4f954d04d9e29894c4c23bdc, type: 3}
    - {fileID: 21300000, guid: e6ed179f2eb6381479fb1f681d282496, type: 3}
  m_AnimationClipSettings:
    serializedVersion: 2
    m_AdditiveReferencePoseClip: {fileID: 0}
    m_AdditiveReferencePoseTime: 0
    m_StartTime: 0
    m_StopTime: 0.25
    m_OrientationOffsetY: 0
    m_Level: 0
    m_CycleOffset: 0
    m_HasAdditiveReferencePose: 0
    m_LoopTime: 0
    m_LoopBlend: 0
    m_LoopBlendOrientation: 0
    m_LoopBlendPositionY: 0
    m_LoopBlendPositionXZ: 0
    m_KeepOriginalOrientation: 0
    m_KeepOriginalPositionY: 1
    m_KeepOriginalPositionXZ: 0
    m_HeightFromFeet: 0
    m_Mirror: 0
  m_EditorCurves: []
  m_EulerEditorCurves: []
  m_HasGenericRootTransform: 0
  m_HasMotionFloatCurves: 0
  m_GenerateMotionCurves: 0
  m_Events: []
